…
Representations per assessor:

    ## # A tibble: 1 × 1
    ##   median_N_RA
    ##         <dbl>
    ## 1        1.68

    ## # A tibble: 45 × 5
    ##    judging_session        Assessors Representations Comparisons   N_RA
    ##    <chr>                      <dbl>           <dbl>       <dbl>  <dbl>
    ##  1 Esen2019                     459               8       12852 0.0174
    ##  2 Isnac2020                    444               8       12432 0.0180
    ##  3 Luckett2018_coldbrew         100               3         300 0.03  
    ##  4 Luckett2018_pizza             95               5         380 0.0526
    ##  5 Vatavu2020                   251              14        6595 0.0558
    ##  6 Luckett2018_icecream          87               5         435 0.0575
    ##  7 Luckett2018_cola              99               6         990 0.0606
    ##  8 LuckettX_odor-familiar        52               5         520 0.0962
    ##  9 LuckettX_odor-pleasant        52               5         520 0.0962
    ## 10 Zucco2019_experts            283              37        3101 0.131 
    ## # ℹ 35 more rows
…
    ##    judging_session                   Assessors Representations Comparisons  N_RA
    ##    <chr>                                 <dbl>           <dbl>       <dbl> <dbl>
    ##  1 Kinnear2021_experts-withsolutions        13              20         302  1.54
    ##  2 Jones2014_Bowland070211data              11              18         143  1.64
    ##  3 Jones2014_GCSE070211data                 11              18         150  1.64
    ##  4 Jones2013a_peer1                        100             168        1200  1.68
    ##  5 Jones2013a_peer2                         93             168        1210  1.81
    ##  6 Bisson2016_stats                         10              20         453  2   
    ##  7 Holmes2017                               33              66        1650  2   
    ##  8 Kinnear2021_students-withsolutio…         9              20         331  2.22
    ##  9 Jones2016b_perfect                       17              38         810  2.24
    ## 10 Daal2017_sample1                         56             136        1229  2.43
    ## 11 Kinnear2021_students-withsolutio…         8              20         142  2.5

    ## # A tibble: 101 × 3
    ##    judging_session     feature                       count
    ##    <chr>               <chr>                         <dbl>
    ##  1 AlMaimani2017       Representations per assessor  0.333
    ##  2 Bisson2016_algebra  Representations per assessor  4.6  
    ##  3 Bisson2016_calculus Representations per assessor  1.33 
    ##  4 Bisson2016_stats    Representations per assessor  2    
    ##  5 Bisson2019          Representations per assessor 20.6  
    ##  6 Bramley2018_1a      Representations per assessor  8.33 
    ##  7 Bramley2018_1b      Representations per assessor  1.11 
    ##  8 Bramley2018_2       Representations per assessor  9.38 
    ##  9 Clark2018_Study1    Representations per assessor  1.46 
    ## 10 Clark2018_Study2    Representations per assessor  0.854
    ## # ℹ 91 more rows
…
